No,Address,Type,Description,Color,Unit,Obs
1,100,REAL,PT01_R452A sensor,fuchsia,bara,Pressure sensor - PT01 - (R452A) [bar (abs)]
2,102,REAL,PT03_R452A sensor,fuchsia,bara,Pressure sensor - PT03 - (R452A) [bar (abs)]
3,104,REAL,PT04_R452A sensor,fuchsia,bara,Pressure sensor - PT04 - (R452A) [bar (abs)]
4,106,REAL,PT01_CO2 sensor,cyan,bara,Pressure sensor - (CO2) [bar (abs)]
5,108,REAL,PT02_CO2 sensor,cyan,bara,Pressure sensor - (CO2) [bar (abs)]
6,110,REAL,PT03_CO2 sensor,cyan,bara,Pressure sensor - (CO2) [bar (abs)]
7,112,REAL,PT04_CO2 sensor,cyan,bara,Pressure sensor - (CO2) [bar (abs)]
8,114,REAL,PT05_CO2 sensor,cyan,bara,Pressure sensor - (CO2) [bar (abs)]
9,116,REAL,PT06_CO2 sensor,red,bara,Pressure sensor - (CO2) [bar (abs)]
10,118,REAL,TT01_R452A sensor,fuchsia,°C,Temperature sensor - TT01 - (R452A) [°C]
11,120,REAL,TT02_R452A sensor,fuchsia,°C,Temperature sensor - TT02 - (R452A) [°C]
12,122,REAL,TT03_R452A sensor,fuchsia,°C,Temperature sensor - TT03 - (R452A) [°C]
13,124,REAL,TT04_R452A sensor,fuchsia,°C,Temperature sensor - TT04 - (R452A) [°C]
14,126,REAL,TT01_CO2 sensor,cyan,°C,Temperature sensor - (CO2) [°C]
15,128,REAL,TT02_CO2 sensor,cyan,°C,Temperature sensor - (CO2) [°C]
16,130,REAL,TT03_CO2 sensor,cyan,°C,Temperature sensor - (CO2) [°C]
17,132,REAL,TT04_CO2 sensor,cyan,°C,Temperature sensor - (CO2) [°C]
18,134,REAL,TT05_CO2 sensor,cyan,°C,Temperature sensor - (CO2) [°C]
19,136,REAL,TT06_CO2 sensor,red,°C,Temperature sensor - (CO2) [°C]
20,138,REAL,TT07_CO2 sensor,red,°C,Temperature sensor - (CO2) [°C]
21,140,REAL,FT01_CO2 sensor,cyan,°C,CO2 Mass Flow Rate - (CO2) [g/s]
22,142,REAL,SH01_R452A calculated value,yellow,K,Superheating (R452A) [°C] calculated: TT01_R452A - ST01_R452A
23,144,REAL,SH03_R452A calculated value,yellow,K,Superheating (R452A) [°C] calculated: TT03_R452A - ST03_R452A
24,146,REAL,ST01_R452A calculated value,yellow,°C,Saturation temperature calculated: pressure PT01 - (R452A) [°C]
25,148,REAL,ST03_R452A calculated value,yellow,°C,Saturation temperature calculated: pressure PT03 - (R452A) [°C]
26,150,REAL,ST01_CO2 calculated value,,,Saturation temperature calculated: pressure PT01CO2 - (CO2) [°C]
27,152,REAL,ST02_CO2 calculated value,,,Saturation temperature calculated: pressure PT01CO2 - (CO2) [°C]
28,154,REAL,ST03_CO2 calculated value,,,Saturation temperature calculated: pressure PT01CO2 - (CO2) [°C]
29,156,REAL,ST04_CO2 calculated value,yellow,°C,Saturation temperature calculated: pressure PT01CO2 - (CO2) [°C]
30,158,REAL,ST05_CO2 calculated value,,,Saturation temperature calculated: pressure PT01CO2 - (CO2) [°C]
31,160,REAL,ST06_CO2 calculated value,,,Saturation temperature calculated: pressure PT01CO2 - (CO2) [°C]
32,162,REAL,SC01_CO2 calculated value,yellow,°C,Subcooling before the pump CO2 [°C]
33,164,REAL,SC02_CO2 calculated value,yellow,°C,Subcooling after pump - (CO2) [°C]
34,166,REAL,Reserved,,,
35,168,REAL,SC03_CO2 calculated value,yellow,°C,Subcooling after the accumulator - (CO2) [°C]
36,170,REAL,SC04_CO2 calculated value,yellow,°C,Subcooling in the accumulator - (CO2) [°C]
37,172,REAL,SC05_CO2 calculated value,yellow,°C,Subcooling in supply line of localbox - (CO2) [°C]
38,174,REAL,SC06_CO2 calculated value,yellow,°C,Subcooling in return line of localbox - (CO2) [°C]
39,176,REAL,DP01_CO2 calculated value,,,Pressure drop over the filter FL1 - (CO2) [bar]
40,178,REAL,DP02_CO2 calculated value,,,Pressure drop over the filter FL2 - (CO2) [bar]
41,180,REAL,DP03_CO2 calculated value,yellow,bara,CO2 pump delta pressure - (CO2) [bar]
42,182,REAL,DP04_CO2 calculated value,,,Pressure drop over experiment - (CO2) [bar]
43,184,REAL,DT02_CO2 calculated value,,,Accumulator delta temperature - (CO2) [°C]
44,186,REAL,DT03_CO2 calculated value,,,Pump delta temperature - (CO2) [°C]
45,188,REAL,DP_EV3C_CO2 calculated value,,,
46,190,REAL,SC01_CO2_Start calculated value,,,
47,192,REAL,EV1 valve position,white,%,EV1 valve opening position [%]
48,194,REAL,EV2 valve position,white,%,EV2 valve opening position [%]
49,196,REAL,EV3 valve position,white,%,EV3 valve opening position [%]
50,198,REAL,EV3C valve position,white,%,EV3C valve opening position [%]
51,200,REAL,LP speed,white,rpm,
52,202,REAL,EH power,white,%,
53,204,REAL,Temperature setpoint,white,,CO2 temperature - User Set-point [°C]
54,206,REAL,Speed setpoint,lime,,CO2 Mass Flow Rate - User Set-point [g/s]
55,208,REAL,Flow setpoint,white,,Pump speed CO2 – User Set-point [RPM]
56,210,REAL,TC04_TSP setpoint,,,
